ENVS 193DS - Coding workshop: Week 3
…
penguin_newcol

# A tibble: 344 × 9
# Groups:   species [3]
   species island    bill_length_mm bill_d…¹ flipp…² body_…³ sex    year body_…⁴
   <fct>   <fct>              <dbl>    <dbl>   <int>   <int> <fct> <int> <chr>  
 1 Adelie  Torgersen           39.1     18.7     181    3750 male   2007 first  
 2 Adelie  Torgersen           39.5     17.4     186    3800 fema…  2007 first  
 3 Adelie  Torgersen           40.3     18       195    3250 fema…  2007 first  
 4 Adelie  Torgersen           NA       NA        NA      NA <NA>   2007 first  
 5 Adelie  Torgersen           36.7     19.3     193    3450 fema…  2007 first  
 6 Adelie  Torgersen           39.3     20.6     190    3650 male   2007 first  
 7 Adelie  Torgersen           38.9     17.8     181    3625 fema…  2007 first  
 8 Adelie  Torgersen           39.2     19.6     195    4675 male   2007 first  
 9 Adelie  Torgersen           34.1     18.1     193    3475 <NA>   2007 first  
10 Adelie  Torgersen           42       20.2     190    4250 <NA>   2007 first  
# … with 334 more rows, and abbreviated variable names ¹​bill_depth_mm,
#   ²​flipper_length_mm, ³​body_mass_g, ⁴​body_mass_cat
…
